{
    "name": "Union Battlefield Recognition Guide",
    "author": "Acrozatarim",
    "description": "A partial comp/con implementation of certain NPCs from the Union Battlefield Recognition Guide, written by Acrozatarim.\nComp/Con Content Pack compiled by Qwertronix and Ragu.\nCurrently includes:\n\n\t• GMS Everest NPC\n\t• SSC Atlas NPC\n\t• SSC Black Witch NPC\n\t• (TODO)\n\t• \n\t• \n\t• \n\t• \n\t• \n\t• \n\t• \n\t• \n\t• \n\t• \n\t• \n\t• \n\t• \n\t• ",
    "item_prefix": "ubrg",
    "version": "0.1.0",
    "image_url": "",
    "website": "https://drive.google.com/file/d/1NXD3iFknaONO9EZwRNv7IGmPAifsHlr6/view"
}